<svg id="point01" xmlns="http://www.w3.org/2000/svg" width="180" height="180" viewBox="0 0 180 180">
  <title>point01</title>
  <g id="border">
    <rect x="2.51" y="2.51" width="174.97" height="174.97" rx="12.94" fill="#fff"/>
    <path d="M164.47,180H15.53A15.55,15.55,0,0,1,0,164.47V15.53A15.55,15.55,0,0,1,15.53,0H164.47A15.55,15.55,0,0,1,180,15.53V164.47A15.55,15.55,0,0,1,164.47,180ZM15.53,5A10.51,10.51,0,0,0,5,15.53V164.47A10.51,10.51,0,0,0,15.53,175H164.47a10.51,10.51,0,0,0,10.5-10.5V15.53A10.51,10.51,0,0,0,164.47,5Z" fill="#df1514"/>
  </g>
  <g id="text">
    <path d="M23.44,84H40.1V51.46H26.65v-8.4c7.49-1.38,12.61-2,17.12-5.2H53.7V84h15V95H23.44Z" fill="#df1514"/>
    <path d="M142.66,72.56v3.28h12.23v9.33H142.66v6.11c0,5-1.07,7.72-4.74,9.33s-7.94,1.68-13.37,1.68a41.38,41.38,0,0,0-4-10.32c3.13.15,7.72.15,8.94.15s1.6-.23,1.6-1.14V85.17H111.94a41.17,41.17,0,0,1,7.26,7.49l-8.56,6.88c-2-3.37-6.73-8.1-10.78-11.39l3.9-3H90.16V75.84h41V72.56h-44V63.23h29.2v-3H94.9v-9h9.24a41.79,41.79,0,0,0-3.44-7.18,60.2,60.2,0,0,1-6.8,8,64,64,0,0,0-9.25-6.19A44.4,44.4,0,0,0,97.26,28.92l10.63,2.9c-.46.92-.92,1.91-1.38,2.83h14.91V41.3a38.48,38.48,0,0,0,7.26-12.38l10.62,2.67c-.38,1-.84,2.07-1.3,3.06h19.11v9h-10.7a29.65,29.65,0,0,1,2.22,3.67l-9.48,3.89a42.33,42.33,0,0,0-4.43-7.56H133a52.84,52.84,0,0,1-5.19,6.49v1.07h22.47v9H127.84v3h29.5v9.33ZM116.3,51.23V48.41h7c-1.91-1.38-4.13-2.68-5.58-3.52a16.9,16.9,0,0,0,1.37-1.22h-7.33a32,32,0,0,1,1.75,3.67l-9.24,3.89Z" fill="#df1514"/>
    <path d="M26.62,142.41h4.45V130.5H27.21v-3.09a14.27,14.27,0,0,0,5.18-1.89h3.69v16.89h3.77v4.06H26.62Z" fill="#df1514"/>
    <path d="M42.73,135.88c0-7.21,3-10.75,7.4-10.75s7.43,3.6,7.43,10.75-3,11-7.43,11S42.73,143.09,42.73,135.88Zm10.1,0c0-5.71-1.21-6.9-2.7-6.9s-2.67,1.19-2.67,6.9,1.18,7.1,2.67,7.1S52.83,141.63,52.83,135.88Z" fill="#df1514"/>
    <path d="M59.87,135.88c0-7.21,3-10.75,7.41-10.75s7.43,3.6,7.43,10.75-3,11-7.43,11S59.87,143.09,59.87,135.88Zm10.11,0c0-5.71-1.21-6.9-2.7-6.9s-2.68,1.19-2.68,6.9,1.19,7.1,2.68,7.1S70,141.63,70,135.88Z" fill="#df1514"/>
    <path d="M77,135.88c0-7.21,3-10.75,7.4-10.75s7.44,3.6,7.44,10.75-3,11-7.44,11S77,143.09,77,135.88Zm10.11,0c0-5.71-1.21-6.9-2.71-6.9s-2.67,1.19-2.67,6.9,1.18,7.1,2.67,7.1S87.13,141.63,87.13,135.88Z" fill="#df1514"/>
    <path d="M94.17,135.88c0-7.21,3-10.75,7.4-10.75s7.43,3.6,7.43,10.75-3,11-7.43,11S94.17,143.09,94.17,135.88Zm10.11,0c0-5.71-1.22-6.9-2.71-6.9s-2.67,1.19-2.67,6.9,1.18,7.1,2.67,7.1S104.28,141.63,104.28,135.88Z" fill="#df1514"/>
    <path d="M112.19,130.45h4.08l.34,1.55h.11a7,7,0,0,1,4.5-1.95c3.83,0,6.26,3.21,6.26,8.14,0,5.52-3.3,8.67-6.73,8.67A5.25,5.25,0,0,1,117,145.2l.14,2.51v4.59h-5Zm10.13,7.83c0-2.82-.81-4.14-2.59-4.14a3.41,3.41,0,0,0-2.56,1.35v6.33a3.47,3.47,0,0,0,2.39.93C121.08,142.75,122.32,141.49,122.32,138.28Z" fill="#df1514"/>
    <path d="M131.36,140.53v-6.17h-2.17v-3.71l2.45-.2.57-4.23h4.16v4.23h3.78v3.91h-3.78v6.11c0,1.78.85,2.48,2,2.48a5.65,5.65,0,0,0,1.46-.28l.79,3.6a11.57,11.57,0,0,1-3.63.59C133,146.86,131.36,144.33,131.36,140.53Z" fill="#df1514"/>
    <path d="M141.86,144.61l2.23-3.12a6.82,6.82,0,0,0,4,1.69c1.33,0,1.89-.48,1.89-1.27,0-1-1.55-1.41-3.18-2.06-1.92-.76-4.17-2-4.17-4.7,0-3,2.48-5.1,6.19-5.1a9.33,9.33,0,0,1,5.75,2.06l-2.25,3a6.25,6.25,0,0,0-3.33-1.35c-1.12,0-1.69.4-1.69,1.16,0,.95,1.47,1.32,3.13,1.91,2,.76,4.22,1.92,4.22,4.82s-2.31,5.23-6.67,5.23A10.33,10.33,0,0,1,141.86,144.61Z" fill="#df1514"/>
  </g>
  <rect id="line" x="22.33" y="110.11" width="135.34" height="4.02" fill="#df1514"/>
</svg>
